{
	"status": "success",
	"content": {
		"pageNum": 1,
		"pageSize": 20,
		"total": 42,
		"pageCount": 3,
		"data": [{
			"jobSerialNumber": "CX201903271625519141110820214829879296",
			"taskCollectId": 236,
			"taskOutputId": 236,
			"collectState": "停止中",
			"outputState": "停止中",
			"createTime": "2019-03-27 16:25:56",
			"updateTime": null,
			"jobStatus": 0,
			"jobDescription": "3213123123131111",
			"isExtractRule": "0",
			"collectIp": "10.10.10.60",
			"scheduledStartTime": "10:27:16",
			"scheduledEndTime": "10:36:21",
			"scheduledDay": 1,
			"timerStatus": "open"
		}, {
			"jobSerialNumber": "CX201903271625452191110820186749014016",
			"taskCollectId": 235,
			"taskOutputId": 235,
			"collectState": "停止中",
			"outputState": "停止中",
			"createTime": "2019-03-27 16:25:48",
			"updateTime": null,
			"jobStatus": 0,
			"jobDescription": "3213123123131",
			"isExtractRule": "1",
			"collectIp": "10.10.10.60",
			"scheduledStartTime": "10:27:16",
			"scheduledEndTime": "10:36:21",
			"scheduledDay": 1,
			"timerStatus": "open"
		}, {
			"jobSerialNumber": "CX201903271620093871110818778167513088",
			"taskCollectId": 234,
			"taskOutputId": 234,
			"collectState": "停止中",
			"outputState": "停止中",
			"createTime": "2019-03-27 16:20:15",
			"updateTime": null,
			"jobStatus": 0,
			"jobDescription": "打算打算的撒大的撒打算的",
			"isExtractRule": "0",
			"collectIp": "10.10.10.57",
			"scheduledStartTime": "10:27:16",
			"scheduledEndTime": "10:36:21",
			"scheduledDay": 1,
			"timerStatus": "open"
		}, {
			"jobSerialNumber": "CX201903271620024511110818749075820544",
			"taskCollectId": 233,
			"taskOutputId": 233,
			"collectState": "停止中",
			"outputState": "停止中",
			"createTime": "2019-03-27 16:20:06",
			"updateTime": "2019-03-28 13:05:31",
			"jobStatus": 0,
			"jobDescription": "打算打算的撒大的撒打算",
			"isExtractRule": "1",
			"collectIp": "10.10.10.57",
			"scheduledStartTime": "10:27:16",
			"scheduledEndTime": "10:36:21",
			"scheduledDay": 1,
			"timerStatus": "open"
		}, {
			"jobSerialNumber": "CX201903271618592941110818484176162816",
			"taskCollectId": 232,
			"taskOutputId": 232,
			"collectState": "运行中",
			"outputState": "待执行",
			"createTime": "2019-03-27 16:19:03",
			"updateTime": null,
			"jobStatus": 1,
			"jobDescription": "测试新建流程------cml111123232",
			"isExtractRule": "0",
			"collectIp": "10.10.10.57",
			"scheduledStartTime": null,
			"scheduledEndTime": null,
			"scheduledDay": null,
			"timerStatus": null
		}, {
			"jobSerialNumber": "CX201903271618506041110818447727661056",
			"taskCollectId": 231,
			"taskOutputId": 231,
			"collectState": "运行中",
			"outputState": "待执行",
			"createTime": "2019-03-27 16:18:55",
			"updateTime": "2019-03-28 14:01:26",
			"jobStatus": 1,
			"jobDescription": "测试新建流程------cml1111",
			"isExtractRule": "1",
			"collectIp": "10.10.10.57",
			"scheduledStartTime": null,
			"scheduledEndTime": null,
			"scheduledDay": null,
			"timerStatus": null
		}, {
			"jobSerialNumber": "CX201903271616353491110817880427073536",
			"taskCollectId": 230,
			"taskOutputId": 230,
			"collectState": "运行中",
			"outputState": "待配置",
			"createTime": "2019-03-27 16:16:55",
			"updateTime": null,
			"jobStatus": 1,
			"jobDescription": "测试新建流程------cml",
			"isExtractRule": "",
			"collectIp": "10.10.10.57",
			"scheduledStartTime": null,
			"scheduledEndTime": null,
			"scheduledDay": null,
			"timerStatus": null
		}, {
			"jobSerialNumber": "CX201903271541154031110808988729085952",
			"taskCollectId": 229,
			"taskOutputId": 229,
			"collectState": "运行中",
			"outputState": "待配置",
			"createTime": "2019-03-27 15:41:44",
			"updateTime": null,
			"jobStatus": 1,
			"jobDescription": "guanchaxiaoguo",
			"isExtractRule": "1",
			"collectIp": "10.10.10.60",
			"scheduledStartTime": null,
			"scheduledEndTime": null,
			"scheduledDay": null,
			"timerStatus": null
		}, {
			"jobSerialNumber": "CX201903271012321701110726263494021120",
			"taskCollectId": 228,
			"taskOutputId": 228,
			"collectState": "运行中",
			"outputState": "待执行",
			"createTime": "2019-03-27 10:12:51",
			"updateTime": "2019-03-27 10:38:26",
			"jobStatus": 1,
			"jobDescription": "新建任务spool---cml",
			"isExtractRule": "1",
			"collectIp": "10.10.10.60",
			"scheduledStartTime": null,
			"scheduledEndTime": null,
			"scheduledDay": null,
			"timerStatus": null
		}, {
			"jobSerialNumber": "CX201903271010323101110725760764743680",
			"taskCollectId": 227,
			"taskOutputId": 227,
			"collectState": "待执行",
			"outputState": "待配置",
			"createTime": "2019-03-27 10:10:45",
			"updateTime": null,
			"jobStatus": 1,
			"jobDescription": "新建流程测试---cml",
			"isExtractRule": "1",
			"collectIp": "10.10.10.57",
			"scheduledStartTime": null,
			"scheduledEndTime": null,
			"scheduledDay": null,
			"timerStatus": null
		}, {
			"jobSerialNumber": "CX201903261726388521110473123330920448",
			"taskCollectId": 226,
			"taskOutputId": 226,
			"collectState": "运行中",
			"outputState": "待配置",
			"createTime": "2019-03-26 17:26:43",
			"updateTime": null,
			"jobStatus": 1,
			"jobDescription": "dsadasdadadadsad",
			"isExtractRule": "",
			"collectIp": "10.10.10.57",
			"scheduledStartTime": null,
			"scheduledEndTime": null,
			"scheduledDay": null,
			"timerStatus": null
		}, {
			"jobSerialNumber": "CX201903261723380611110472365038505984",
			"taskCollectId": 225,
			"taskOutputId": 225,
			"collectState": "已停止",
			"outputState": "待配置",
			"createTime": "2019-03-26 17:23:44",
			"updateTime": null,
			"jobStatus": 0,
			"jobDescription": "dsadsadadadadadasda",
			"isExtractRule": "1",
			"collectIp": "10.10.10.60",
			"scheduledStartTime": null,
			"scheduledEndTime": null,
			"scheduledDay": null,
			"timerStatus": null
		}, {
			"jobSerialNumber": "CX201903261017523891110365218724253696",
			"taskCollectId": 224,
			"taskOutputId": 224,
			"collectState": "已停止",
			"outputState": "待配置",
			"createTime": "2019-03-26 10:17:55",
			"updateTime": "2019-03-26 15:24:01",
			"jobStatus": 0,
			"jobDescription": "CX201903261017523891110365218724253696",
			"isExtractRule": "1",
			"collectIp": "10.10.10.60",
			"scheduledStartTime": null,
			"scheduledEndTime": null,
			"scheduledDay": null,
			"timerStatus": null
		}, {
			"jobSerialNumber": "CX201903242200232461109817236501172224",
			"taskCollectId": 223,
			"taskOutputId": 223,
			"collectState": "已停止",
			"outputState": "待配置",
			"createTime": "2019-03-24 22:00:26",
			"updateTime": null,
			"jobStatus": 0,
			"jobDescription": "CX201903242200232461109817236501172224",
			"isExtractRule": "1",
			"collectIp": "10.10.10.60",
			"scheduledStartTime": null,
			"scheduledEndTime": null,
			"scheduledDay": null,
			"timerStatus": null
		}, {
			"jobSerialNumber": "CX201903241831197051109764625076981760",
			"taskCollectId": 219,
			"taskOutputId": 219,
			"collectState": "已停止",
			"outputState": "待配置",
			"createTime": "2019-03-24 18:31:22",
			"updateTime": null,
			"jobStatus": 0,
			"jobDescription": "CX201903241831197051109764625076981760",
			"isExtractRule": "1",
			"collectIp": "10.10.10.60",
			"scheduledStartTime": null,
			"scheduledEndTime": null,
			"scheduledDay": null,
			"timerStatus": null
		}, {
			"jobSerialNumber": "CX201903201853500181108320737237798912",
			"taskCollectId": 215,
			"taskOutputId": 215,
			"collectState": "已停止",
			"outputState": "待配置",
			"createTime": "2019-03-20 18:53:52",
			"updateTime": null,
			"jobStatus": 0,
			"jobDescription": "CX201903201853500181108320737237798912",
			"isExtractRule": "1",
			"collectIp": "10.10.10.60",
			"scheduledStartTime": null,
			"scheduledEndTime": null,
			"scheduledDay": null,
			"timerStatus": null
		}, {
			"jobSerialNumber": "CX201903201717202021108296452993585152",
			"taskCollectId": 214,
			"taskOutputId": 214,
			"collectState": "已停止",
			"outputState": "待配置",
			"createTime": "2019-03-20 17:17:22",
			"updateTime": null,
			"jobStatus": 0,
			"jobDescription": "CX201903201717202021108296452993585152",
			"isExtractRule": "1",
			"collectIp": "10.10.10.60",
			"scheduledStartTime": null,
			"scheduledEndTime": null,
			"scheduledDay": null,
			"timerStatus": null
		}, {
			"jobSerialNumber": "CX201903071804309801103597283880079360",
			"taskCollectId": 211,
			"taskOutputId": 211,
			"collectState": "已停止",
			"outputState": "停止中",
			"createTime": "2019-03-07 18:04:39",
			"updateTime": "2019-03-11 11:13:07",
			"jobStatus": 0,
			"jobDescription": "dddddddddd",
			"isExtractRule": "1",
			"collectIp": "10.10.10.60",
			"scheduledStartTime": "08:49:15",
			"scheduledEndTime": "11:49:19",
			"scheduledDay": 1,
			"timerStatus": "close"
		}, {
			"jobSerialNumber": "CX201903071650091991103578569818378240",
			"taskCollectId": 210,
			"taskOutputId": 210,
			"collectState": "已停止",
			"outputState": "停止中",
			"createTime": "2019-03-07 16:50:12",
			"updateTime": null,
			"jobStatus": 0,
			"jobDescription": "CX201903071650091991103578569818378240",
			"isExtractRule": "1",
			"collectIp": "10.10.10.60",
			"scheduledStartTime": "17:42:00",
			"scheduledEndTime": "17:49:00",
			"scheduledDay": 1,
			"timerStatus": "close"
		}, {
			"jobSerialNumber": "CX201903071051425091103488364226678784",
			"taskCollectId": 208,
			"taskOutputId": 208,
			"collectState": "已停止",
			"outputState": "待配置",
			"createTime": "2019-03-07 10:52:10",
			"updateTime": "2019-03-07 10:52:46",
			"jobStatus": 0,
			"jobDescription": "CX201903071051425091103488364226678784",
			"isExtractRule": "1",
			"collectIp": "10.10.10.57",
			"scheduledStartTime": null,
			"scheduledEndTime": null,
			"scheduledDay": null,
			"timerStatus": "close"
		}],
		"preurl": null,
		"nexturl": null
	},
	"message": null,
	"errorCode": null
}